…
data_1 = scrap(sutradara[1],link[1])

for(i in 2:length(sutradara)){
  temp = scrap(sutradara[i],link[i])
  data_1 = rbind(data_1,temp)
}

data_1
```

    ## # A tibble: 161 x 2
    ##    nama              collab                   
    ##    <chr>             <chr>                    
    ##  1 Christopher Nolan " Michael Caine\n"       
    ##  2 Christopher Nolan " Christian Bale\n"      
    ##  3 Christopher Nolan " Mark Boone Junior\n"   
    ##  4 Christopher Nolan " Tom Hardy\n"           
    ##  5 Christopher Nolan " Joseph Gordon-Levitt\n"
    ##  6 Christopher Nolan " Cillian Murphy\n"      
    ##  7 Christopher Nolan " Marion Cotillard\n"    
    ##  8 Christopher Nolan " Liam Neeson\n"         
    ##  9 Christopher Nolan " Gary Oldman\n"         
    ## 10 Christopher Nolan " Morgan Freeman\n"      
    ## # … with 151 more rows
